[
{
    "model": "services.services",
    "pk": 1,
    "fields": {
        "categories": 1,
        "name": "Haircut"
    }
},
{
    "model": "services.services",
    "pk": 2,
    "fields": {
        "categories": 1,
        "name": "Hair wash"
    }
},
{
    "model": "services.services",
    "pk": 3,
    "fields": {
        "categories": 1,
        "name": "Hair colour"
    }
},
{
    "model": "services.services",
    "pk": 4,
    "fields": {
        "categories": 1,
        "name": "Highlights"
    }
},
{
    "model": "services.services",
    "pk": 5,
    "fields": {
        "categories": 1,
        "name": "Shave"
    }
},
{
    "model": "services.services",
    "pk": 6,
    "fields": {
        "categories": 1,
        "name": "Beard trim/styling"
    }
},
{
    "model": "services.services",
    "pk": 7,
    "fields": {
        "categories": 1,
        "name": "Blow-dry"
    }
},
{
    "model": "services.services",
    "pk": 8,
    "fields": {
        "categories": 2,
        "name": "Facial"
    }
},
{
    "model": "services.services",
    "pk": 9,
    "fields": {
        "categories": 2,
        "name": "De-Tan"
    }
},
{
    "model": "services.services",
    "pk": 10,
    "fields": {
        "categories": 2,
        "name": "Clean Up"
    }
},
{
    "model": "services.services",
    "pk": 11,
    "fields": {
        "categories": 2,
        "name": "Face Mask"
    }
},
{
    "model": "services.services",
    "pk": 12,
    "fields": {
        "categories": 3,
        "name": "Nail Spa"
    }
},
{
    "model": "services.services",
    "pk": 13,
    "fields": {
        "categories": 3,
        "name": "Hand Spa"
    }
},
{
    "model": "services.services",
    "pk": 14,
    "fields": {
        "categories": 3,
        "name": "Foot Spa"
    }
},
{
    "model": "services.services",
    "pk": 15,
    "fields": {
        "categories": 4,
        "name": "Bridal makeup"
    }
},
{
    "model": "services.services",
    "pk": 16,
    "fields": {
        "categories": 4,
        "name": "Traditional makeup"
    }
},
{
    "model": "services.services",
    "pk": 17,
    "fields": {
        "categories": 6,
        "name": "Threading"
    }
},
{
    "model": "services.services",
    "pk": 18,
    "fields": {
        "categories": 7,
        "name": "Full body wax"
    }
},
{
    "model": "services.services",
    "pk": 19,
    "fields": {
        "categories": 7,
        "name": "Upper lip"
    }
},
{
    "model": "services.services",
    "pk": 20,
    "fields": {
        "categories": 8,
        "name": "Manicure"
    }
},
{
    "model": "services.services",
    "pk": 21,
    "fields": {
        "categories": 8,
        "name": "Pedicure"
    }
},
{
    "model": "services.services",
    "pk": 22,
    "fields": {
        "categories": 9,
        "name": "Head Massage"
    }
},
{
    "model": "services.services",
    "pk": 23,
    "fields": {
        "categories": 9,
        "name": "Quick Massage"
    }
},
{
    "model": "services.services",
    "pk": 24,
    "fields": {
        "categories": 9,
        "name": "Body Massage"
    }
}
]
